{
    "equal": {
        "base": 1.0,
        "exponent": 1.0,
        "result": 1.0
    },
    "two": {
        "base": 2.0,
        "exponent": 2.0,
        "result": 4.0
    },
    "ten": {
        "base": 10.0,
        "exponent": 2.0,
        "result": 100.0
    },
    "even_exponent": {
        "base": -2.0,
        "exponent": 5.0,
        "result": -32.0
    },
    "negative_exponent": {
        "base": 25.0,
        "exponent": -2.0,
        "result": 0.0016
    },
    "decimal_exponent": {
        "base": 25.0,
        "exponent": 0.5,
        "result": 5.0
    },
    "odd_exponent": {
        "base": -7.0,
        "exponent": 4.0,
        "result": 2401.0
    }
}
