{
    "empty": {
        "user_stream": [],
        "find_user": null,
        "delete_user": null,
        "exception": ""
    },
    "one": {
        "user_stream": [
            {
                "uuid1": "1",
                "name": "rintosaka",
                "age": "20",
                "email": "rintohsaka@oracle.com",
                "country": "MX"
            }
        ],
        "find_user": null,
        "delete_user": null,
        "exception": "UserError"
    }
}
