{
    "test_str": {
        "decimal": "1",
        "roman": "",
        "exception": "TypeError"
    },
    "test_list": {
        "decimal": [],
        "roman": "",
        "exception": "TypeError"
    },
    "test_none": {
        "decimal": null,
        "roman": "",
        "exception": "TypeError"
    },
    "test_upper": {
        "decimal": 100000000000000,
        "roman": "",
        "exception": "ArithmeticError"
    }
}
